…
Most popular car models (by Manufacturer)

Before we can find which car models are most popular, we need to do a bit of data transformation first. To illustrate the problem, look out the output below.

tidy_cars %>% 
  select(Make, Model) %>%
  filter(Make == "FORD", grepl("B-MAX", Model)) %>%
  distinct()

## # A tibble: 26 x 2
##     Make                         Model
##    <chr>                         <chr>
##  1  FORD                  B-MAX STUDIO
##  2  FORD           B-MAX TITANIUM AUTO
##  3  FORD      B-MAX TITANIUM NAVIGATOR
##  4  FORD B-MAX TITANIUM NAVIGATOR AUTO
##  5  FORD B-MAX TITANIUM NAVIGATOR TDCI
##  6  FORD           B-MAX TITANIUM TDCI
##  7  FORD          B-MAX TITANIUM TURBO
##  8  FORD              B-MAX TITANIUM X
##  9  FORD         B-MAX TITANIUM X AUTO
## 10  FORD     B-MAX TITANIUM X NAV TDCI
## # ... with 16 more rows
…
