…
## # A tibble: 1 x 1
##       n
##   <int>
## 1   789

Number of Guests Per Epidsode

tidy_df %>%
  count(overall_episode_no) %>%
  arrange(desc(n)) %>%
  top_n(10, wt = n)

## # A tibble: 27 x 2
##    overall_episode_no     n
##                 <chr> <int>
##  1                206    14
##  2                248     9
##  3                136     8
##  4                171     8
##  5                313     8
##  6                240     7
##  7                298     7
##  8                345     7
##  9                103     6
## 10                189     6
## # ... with 17 more rows
…
